# viralDetectTools
Modules for a viral detection pipeline. Uses external tools and software. No standalone.


# A tibble: 1,254 x 5
       prot_id genebank_id pos_start pos_end   ind
         <chr>       <chr>     <dbl>   <dbl> <int>
  1 ACV65233.1    GQ433781         1     370  2394
  2 ACV92778.1    GQ475037         1     672  6302
  3 ADI44724.1    GQ485488         1     690  8733
  4 ADK27652.1    GQ490654         1     361  9851
  5 ACV86394.1    GQ497004         1    1411 10836
  6 ACX32435.1    GQ500979         1     543 11075
  7 ADE58463.1    GQ865655         1     384 16560
  8 ACX62200.1    GQ904669         1     554 20079
  9 ACV90776.1    GQ923367         8    1417 21573
 10 ADN65884.1    GU001061         1     187 23908
 # ... with 1,244 more rows


 # A tibble: 1,000 x 8
    genebank_id   mol_type                              strain  tax_id Accession
          <chr>      <chr>                               <chr>   <chr>     <chr>
  1    CY153326 viral cRNA                   B/Sydney/539/2008 1275750  CY153326
  2    CY154660 viral cRNA                 B/Victoria/341/2002 1296916  CY154660
  3    CY156250 viral cRNA                  B/Brisbane/23/2007 1296734  CY156250
  4    CY157042 viral cRNA A/lesser scaup/California/3087/2010 1400507  CY157042
  5    CY158679 viral cRNA         A/swine/Manitoba/01781/2007  982775  CY158679
  6    CY160007 viral cRNA  A/swine/North Carolina/SG1362/2010 1261790  CY160007
  7    CY160047 viral cRNA            A/swine/Iowa/SG1368/2010 1261753  CY160047
  8    CY161225 viral cRNA                  A/Peru/PER119/2010 1429464  CY161225
  9    CY163819 viral cRNA                  A/Brisbane/59/2007  504904  CY163819
 10    CY164853 viral cRNA         A/mallard/Sweden/52116/2006 1455438  CY164853
 # ... with 990 more rows, and 3 more variables: Length <int>, Organism <chr>,
 #   Description <chr>
